<?xml version="1.0" encoding="utf-8"?>
<!-- Generator: Adobe Illustrator 16.0.0, SVG Export Plug-In . SVG Version: 6.00 Build 0)  -->
<!DOCTYPE svg PUBLIC "-//W3C//DTD SVG 1.1//EN" "http://www.w3.org/Graphics/SVG/1.1/DTD/svg11.dtd">
<svg version="1.1" id="Layer_1" xmlns="http://www.w3.org/2000/svg" xmlns:xlink="http://www.w3.org/1999/xlink" x="0px" y="0px"
	 width="128px" height="128px" viewBox="0 0 128 128" enable-background="new 0 0 128 128" xml:space="preserve">
<g transform="translate(0.000000,78.000000) scale(0.100000,-0.100000)">
	<path fill="#333333" d="M150.518,577.949c-28.906-33.706-43.35-67.422-43.35-105.967c0-49.756,17.661-73.838,126.836-187.832
		C378.491,134.834,417.031,69.023,461.987-114.014c51.367-207.1,86.689-253.662,186.24-253.662
		c86.694,1.582,138.062,70.645,173.394,237.598c36.914,178.223,94.727,280.962,235.996,419.043
		c113.984,109.18,125.234,126.831,125.234,183.018c0,46.572-11.25,73.867-46.563,109.185
		c-57.793,57.798-123.613,61.006-240.83,12.847l-81.865-35.327V364.429c-1.611-128.442-8.037-202.3-20.869-218.35
		c-61.016-78.677-178.218-104.36-250.459-54.595c-61.021,43.35-81.885,118.809-81.885,300.229V557.08l-72.251,35.322
		C280.561,643.779,205.107,638.965,150.518,577.949z"/>
	<path fill="#333333" d="M584.004,528.174c-38.53-30.503-59.414-99.536-59.414-194.258c0-102.754,27.305-158.95,83.496-178.208
		c102.754-36.919,171.787,70.635,150.898,237.622C744.551,516.948,659.463,584.375,584.004,528.174z"/>
</g>
<path id="path2159" sodipodi:nodetypes="ccccscc" fill="#ED1F24" d="M29.929,63.734l3.514,27.193L104.196,6.87l20.554,0.803
	C94.438,38.03,64.916,74.963,38.122,111.294c-23.52,31.888-17.715,4.718-31.927-39.388L29.929,63.734z"/>
</svg>
